                     .c.
                   .d$$e$.
                .e$P"   ^*%
             .e$P"
           z$$$"
        z$$$$$F
     .d$$$$$$$F
  .d$$$$$$$$$$F
.3$$$$$$$$$$$$F
  $$$$$" ""$*$"
   P $"    $ $
  d d"     $ $
  $ *      $ $
   ) '     $ $
    % '    $ $
     % "   $ $
      - )  * *
